VertexLitGeneric
{

	// MAIN SETTINGS
	$basetexture                "models/weapons/v_mp5k/mp5k"
	$bumpmap                    "models/weapons/v_mp5k/mp5k_n"

	// PHONG
	$phong                      1
	$phongboost                 0.2
	$phongfresnelranges         "[1 3 6]"

}