VertexlitGeneric
{
	$basetexture	"models\HDTF\mitchell2\glove"
	$bumpmap	"models\HDTF\mitchell2\glove_normal"

	$phong		1
	$phongtint	"[ 1 1 1 ]"
	$phongboost	2
	$phongexponent	3
	$phongfresnelranges "[.1 .1 .7 ]"		
}
